Twitter Analysis Menggunakan R - Studi Kasus Twitter Para Capres 2019
…
Keluaran fungsi create_token()

Setelah itu kita siap untuk melakukan scrapping data Twitter.

Melihat Trending Topics Berdasarkan Negara

Kita bisa melihat berbagai daerah yang bisa dicari topiknya dengan menggunakan fungsi trends_avalible():

# Cari tren yang bisa diakses 
trends_available()

## # A tibble: 467 x 8
##    name   url          parentid country  woeid countryCode  code place_type
##    <chr>  <chr>           <int> <chr>    <int> <chr>       <int> <chr>     
##  1 World http://wher        0 ""           1 <NA>           19 Supername 
##  2 Winni http://wher 23424775 Canada    2972 CA              7 Town      
##  3 Ottawa http://wher 23424775 Canada    3369 CA              7 Town      
##  4 Quebec http://wher 23424775 Canada    3444 CA              7 Town      
##  5 Montr http://wher 23424775 Canada    3534 CA              7 Town      
##  6 Toron http://wher 23424775 Canada    4118 CA              7 Town      
##  7 Edmon http://wher 23424775 Canada    8676 CA              7 Town      
##  8 Calga http://wher 23424775 Canada    8775 CA              7 Town      
##  9 Vanco http://wher 23424775 Canada    9807 CA              7 Town      
## 10 Birmi http://wher 23424975 United  12723 GB              7 Town      
## #  with 457 more rows

Kita bisa melihat trending topics saat ini menggunakan fungsi get_trends("nama negara/daerah"):

# Dapatkan trending topics dari 'Indonesia'
get_trends("indonesia")

## # A tibble: 50 x 9
##    trend url   promoted_content query tweet_volume place  woeid
##    <chr> <chr> <lgl>            <chr>        <int> <chr>  <int>
##  1 #Caw http NA               %23C           NA Indo 2.34e7
##  2 #Ema http NA               %23E           NA Indo 2.34e7
##  3 #Ema http NA               %23E        30053 Indo 2.34e7
##  4 #DIY http NA               %23D        11550 Indo 2.34e7
##  5 Brun http NA               %22B           NA Indo 2.34e7
##  6 #BLA http NA               %23B       127581 Indo 2.34e7
##  7 Ratn http NA               %22R           NA Indo 2.34e7
##  8 Motif http NA               Motif           NA Indo 2.34e7
##  9 Madr http NA               Madr       521550 Indo 2.34e7
## 10 Sela http NA               %22S           NA Indo 2.34e7
## #  with 40 more rows, and 2 more variables: as_of <dttm>,
## #   created_at <dttm>

Kita bisa menyimpan hasilnya ke dalam sebuah variabel untuk analisis lebih lanjut, misalnya ke dalam variabel trending_indo:

# Memasukkan nilai dari fungsi get_trends ke variabel trending_indo
trending_indo <- get_trends("indonesia") 

# memanggil trending_indo
trending_indo

## # A tibble: 50 x 9
##    trend url   promoted_content query tweet_volume place  woeid
##    <chr> <chr> <lgl>            <chr>        <int> <chr>  <int>
##  1 #Caw http NA               %23C           NA Indo 2.34e7
##  2 #Ema http NA               %23E           NA Indo 2.34e7
##  3 #Ema http NA               %23E        29268 Indo 2.34e7
##  4 #DIY http NA               %23D        11367 Indo 2.34e7
##  5 #BLA http NA               %23B       126206 Indo 2.34e7
##  6 Brun http NA               %22B           NA Indo 2.34e7
##  7 Ratn http NA               %22R           NA Indo 2.34e7
##  8 Madr http NA               Madr       521068 Indo 2.34e7
##  9 Sela http NA               %22S           NA Indo 2.34e7
## 10 Hote http NA               %22H           NA Indo 2.34e7
## #  with 40 more rows, and 2 more variables: as_of <dttm>,
## #   created_at <dttm>
…
Kolom tweet_volume berisis jumlah banyaknya topik/hashtag tersebut digunakan oleh pengguna twitter

Kolom place dan woeid adalah negara dan id negara dimana trending topics diperoleh

Kolom created_at adalah waktu kapan trending topics tersebut muncul

Kita bisa memilih beberapa variabel diatas dengan menggunakan fungsi select(nama_kolom):

# Dari trending_indo
trending_indo %>% 
  # pilih kolom trend dan kolom tweet_volume
  select(trend, tweet_volume)

## # A tibble: 50 x 2
##    trend                          tweet_volume
##    <chr>                                 <int>
##  1 #CawapresGueKeren                        NA
##  2 #Emak2KorbanRezimJKW                     NA
##  3 #Emak2Korban02                        29268
##  4 #DIYogyakartaPilihPrabowoSandi        11367
##  5 #BLACKPINKxBILLBOARD                 126206
##  6 Bruno Mars                               NA
##  7 Ratna Sarumpaet                          NA
##  8 Madrid                               521068
##  9 Selamat Hari Gizi Nasional               NA
## 10 Hotel Sultan                             NA
## #  with 40 more rows
…
Analisa Tweet Berdasarkan Hashtag, Mention atau Keyword

Kita bisa melakukan pencarian untuk topik tertentu berdasarkan hashtag, mention maupun kata kunci apapun menggunakan fungsi search_tweet. Sebagai contoh saya mencari hashtag #rstats:

# Cari tweet dengan hashtag #rstats sebanyak 100 lalu masukkan ke variabel 'hasil_pencarian'
hasil_pencarian <- search_tweets(q = "#rstats", n = 100)

## Searching for tweets...

## Finished collecting tweets!

# perlihatkan nilai dari hasil_pencarian
hasil_pencarian

## # A tibble: 100 x 88
##    user_id status_id created_at          screen_name text  source
##    <chr>   <chr>     <dttm>              <chr>       <chr> <chr> 
##  1 701540 11009748 2019-02-28 04:23:50 fatma_cina "Gel Twitt
##  2 240847 11009743 2019-02-28 04:21:44 SamStiyer   "Gre Twitt
##  3 973888 11009742 2019-02-28 04:21:33 PD_MobileA "Tec Twitt
##  4 901509 11009740 2019-02-28 04:20:51 electivenow "Mul Twitt
##  5 904618 11009739 2019-02-28 04:20:10 VuePackage  "Tec VuePa
##  6 188811 11009734 2019-02-28 04:18:22 jsonbaik    "Gre Twitt
##  7 162410 11009731 2019-02-28 04:17:11 HydrePrever "Pyt Twitt
##  8 192103 11009728 2019-02-28 04:16:03 Dlobdog     "Tec Twitt
##  9 172276 11009726 2019-02-28 04:14:57 MattDabrow "Ove Twitt
## 10 737164 11009720 2019-02-28 04:12:57 christineb "Tod Twitt
## #  with 90 more rows, and 82 more variables: display_text_width <dbl>,
## #   reply_to_status_id <lgl>, reply_to_user_id <lgl>,
## #   reply_to_screen_name <lgl>, is_quote <lgl>, is_retweet <lgl>,
## #   favorite_count <int>, retweet_count <int>, hashtags <list>,
## #   symbols <list>, urls_url <list>, urls_t.co <list>,
## #   urls_expanded_url <list>, media_url <list>, media_t.co <list>,
## #   media_expanded_url <list>, media_type <list>, ext_media_url <list>,
## #   ext_media_t.co <list>, ext_media_expanded_url <list>,
## #   ext_media_type <chr>, mentions_user_id <list>,
…
profile_image_url (tipe data: character) merupakan link dari profil pengguna

Kita juga bisa melakukan pencarian dengan menggunakan kata kunci (keyword), misalnya kata politik dengan tweet berbahasa indonesia sebanyak 3200:

# Cari tweet dengan kata kunci 'politik' sebanyak 3200 tweet lalu masukkan ke variabel 'hasil_pencarian2' dengan bahasa yang dipakai adalah bahasa indonesia
hasil_pencarian2 <- search_tweets(q = "politik", n = 3200, lang = "id")

## Searching for tweets...

## Finished collecting tweets!

# perlihatkan nilai dari hasil_pencarian2
hasil_pencarian2

## # A tibble: 3,117 x 88
##    user_id status_id created_at          screen_name text  source
##    <chr>   <chr>     <dttm>              <chr>       <chr> <chr> 
##  1 116787 11009748 2019-02-28 04:24:05 nyinyir_ba Dedi Twitt
##  2 788978 11009748 2019-02-28 04:24:04 diditjunai "Pa Twitt
##  3 788978 11009676 2019-02-28 03:55:27 diditjunai "Tak Twitt
##  4 867438 11009748 2019-02-28 04:24:03 KholidZaif Ratn dlvr.
##  5 106060 11009748 2019-02-28 04:24:02 imunk_wae   "Ema Twitt
##  6 216161 11009748 2019-02-28 04:24:01 hrs_bkd     "Pak Twitt
##  7 609616 11009748 2019-02-28 04:24:01 ryanadsty   Hidu Twitt
##  8 828144 11009748 2019-02-28 04:24:01 muSlimATjkt "Kat Twitt
##  9 235168 11009748 2019-02-28 04:24:00 ysminsuraya "Tak Twitt
## 10 331481 11009744 2019-02-28 04:22:25 NissaLatte  Dari Twitt
## #  with 3,107 more rows, and 82 more variables: display_text_width <dbl>,
## #   reply_to_status_id <chr>, reply_to_user_id <chr>,
## #   reply_to_screen_name <chr>, is_quote <lgl>, is_retweet <lgl>,
## #   favorite_count <int>, retweet_count <int>, hashtags <list>,
## #   symbols <list>, urls_url <list>, urls_t.co <list>,
## #   urls_expanded_url <list>, media_url <list>, media_t.co <list>,
## #   media_expanded_url <list>, media_type <list>, ext_media_url <list>,
## #   ext_media_t.co <list>, ext_media_expanded_url <list>,
## #   ext_media_type <chr>, mentions_user_id <list>,
…
Selanjutnya kita akan melihat semua tweet tersebut dengan melihat variabel text:

# Dari hasil_pencarian2
hasil_pencarian2 %>% 
  # Pilih kolom teks
  select(text)

## # A tibble: 3,117 x 1
##    text                                                                    
##    <chr>                                                                   
##  1 Dedikasi ibu Ratna sarumpaet hancur karena politik hoax #Emak2Korban02 
##  2 "Para Suami/Bapak.\nIngat kan istri untuk berhati hati kalau ada ajaka
##  3 "Tak akan terjadi \nMamakke sdh teredukasi cukup baik tntg politik di 
##  4 Ratna Sarumpaet: Ada Ketegangan Luar Biasa Saat Penyidikan, Ini Politik
##  5 "Emak emak gk bakalan hirau dgn politik kalo keadaan baik2 saja, ini mh
##  6 "Pakar LIPI : ''Ada beberapa data saat debat yang disebutkan Jokowi kel
##  7 Hidup, milenial! https://t.co/Cdsism6qQG                                
##  8 "Kata orang, tidak ada kebetulan dalam Politik\n\nSaya setuju https://t
##  9 "Tak sensitif langsung kepada perasaan keluarga Arwah.  \nBukan semua p
## 10 Daripada harus susah-susah mengabdi untuk partai politik, lebih baik la
## #  with 3,107 more rows
…
Catatan:

Ada 3 jenis operator assignment di R, yaitu <-, =, dan ->. Operator <- dan = memiliki fungsi yang sama yaitu memasukkan nilai dari sebelah kanan operator ke variabel (contoh: nilai <- 3 atau nilai = 3), sedangkan -> memasukkan nilai dari sebelah kiri operator ke variabel (contoh: 3 -> nilai)

Selanjutnya kita akan melihat wordcloud dari teks yang sudah dibersihkan dengan memotongnya menjadi per kata dengan fungsi unnest_tokens() dan menghitung frekuensu huruf dengan fungsi count()55 fungsi unnest_tokens() dan count() adalah bagian dari tidytext. Referensi terkait tidytext dapat melihat situs https://www.tidytextmining.com/.:

# Dari variabel text_cleaned
text_cleaned %>%   
  # tokenize setiap kalimat menjadi per kata
  unnest_tokens(input = text, output = token) %>% 
  # hitung frekuensi semua huruf lalu urutkan 
  # dari yang paling besar frekuensinya
  count(token, sort = T)

## # A tibble: 6,654 x 2
##    token       n
##    <chr>   <int>
##  1 politik  3098
##  2 dan      1320
##  3 yang     1097
##  4 di       1020
##  5 emak     1018
##  6 saya      770
##  7 tidak     757
##  8 yg        702
##  9 ini       663
## 10 ada       568
## #  with 6,644 more rows
…
# Ambil stopwords dari link, beri nama kolomnya 'stopwords'
# hasilnya disimpan ke dalam variabel 'stopword_indo'
stopword_indo <- read_csv("https://raw.githubusercontent.com/masdevid/ID-Stopwords/master/id.stopwords.02.01.2016.txt", 
                          col_names = "stopwords")

## Parsed with column specification:
## cols(
##   stopwords = col_character()
## )

# Melihat sebagian isi dari stopword_indo
stopword_indo

## # A tibble: 758 x 1
##    stopwords
##    <chr>    
##  1 ada      
##  2 adalah   
##  3 adanya   
##  4 adapun   
##  5 agak     
##  6 agaknya  
##  7 agar     
##  8 akan     
##  9 akankah  
## 10 akhir    
## #  with 748 more rows

Selanjutnya kita akan membuang semua stopwords pada teks dengan menggunakan fungsi anti_join():

# Dari variabel text_cleaned
text_cleaned %>% 
  # tokenize setiap kalimat menjadi per kata
  unnest_tokens(input = text, output = token) %>% 
  # buang setiap stopword yang ada pada kolom 
  # token jika terdapat kata yang sama dengan 
  # yang ada pada variabel stopword_indo
  anti_join(stopword_indo, by = c("token" = "stopwords"))

## # A tibble: 55,065 x 1
##    token        
##    <chr>        
##  1 dedikasi     
##  2 ratna        
##  3 sarumpaet    
##  4 hancur       
##  5 politik      
##  6 hoax         
##  7 emak2korban02
##  8 suami        
##  9 istri        
## 10 berhati      
## #  with 55,055 more rows
…
Kita bisa membaca hasil yang disimpan menggunakan parse_stream():

# Lakukan parsing pada 
parse_stream("hasil_streaming.json")

## opening file input connection.

## 
 Found 81 records...
 Imported 81 records. Simplifying...

## closing file input connection.

## # A tibble: 81 x 88
##    user_id status_id created_at          screen_name text  source
##    <chr>   <chr>     <dttm>              <chr>       <chr> <chr> 
##  1 108916 11009751 2019-02-28 04:24:59 Yudi986195 Rezi Twitt
##  2 632018 11009751 2019-02-28 04:24:59 faridund    "@th Twitt
##  3 228020 11009751 2019-02-28 04:25:02 FreieWeltEu "Mer Freie
##  4 228020 11009751 2019-02-28 04:25:02 FreieWeltEu "2.  Freie
##  5 228020 11009751 2019-02-28 04:25:02 FreieWeltEu "Jou Freie
##  6 228020 11009751 2019-02-28 04:25:02 FreieWeltEu "Kam Freie
##  7 228020 11009751 2019-02-28 04:25:03 FreieWeltEu "Wen Freie
##  8 108426 11009751 2019-02-28 04:25:02 Sri_Wuland "Ada Twitt
##  9 115249 11009751 2019-02-28 04:25:06 obatpusing Pera Twitt
## 10 109480 11009751 2019-02-28 04:25:09 Mama_Balqi "Ada Twitt
## #  with 71 more rows, and 82 more variables: display_text_width <dbl>,
## #   reply_to_status_id <chr>, reply_to_user_id <chr>,
## #   reply_to_screen_name <chr>, is_quote <lgl>, is_retweet <lgl>,
## #   favorite_count <int>, retweet_count <int>, hashtags <list>,
## #   symbols <list>, urls_url <list>, urls_t.co <list>,
## #   urls_expanded_url <list>, media_url <list>, media_t.co <list>,
## #   media_expanded_url <list>, media_type <list>, ext_media_url <list>,
## #   ext_media_t.co <list>, ext_media_expanded_url <list>,
## #   ext_media_type <chr>, mentions_user_id <list>,
…
Studi Kasus: Analisa Sederhana Twitter Kedua Capres 2019

Kita bisa melakukan scrape terhadap timeline seseorang dengan menggunakan get_timeline(). Untuk ini kita akan melakukan scraping pada dua pasangan capres: Joko Widodo(jokowi) dan Prabowo Subianto(prabowo):

Timeline Joko Widodo

# lihat timeline jokowi dan ambil tweet sebanyak 10000
# atau sebanyak-banyaknya
timeline_jokowi <- get_timeline(user = "jokowi", n = 10000)

# lihat isi dari timeline_jokowi
timeline_jokowi

## # A tibble: 1,490 x 88
##    user_id status_id created_at          screen_name text  source
##    <chr>   <chr>     <dttm>              <chr>       <chr> <chr> 
##  1 366987 11009654 2019-02-28 03:46:22 jokowi      "Sim Twitt
##  2 366987 11007359 2019-02-27 12:34:41 jokowi      "Di  Twitt
##  3 366987 11006713 2019-02-27 08:17:59 jokowi      "Tib Twitt
##  4 366987 11005852 2019-02-27 02:35:56 jokowi      "Pem Twitt
##  5 366987 11004424 2019-02-26 17:08:30 jokowi      "Ind Twitt
##  6 366987 11003491 2019-02-26 10:57:42 jokowi      Memb Twitt
##  7 366987 11002382 2019-02-26 03:36:44 jokowi      "Blu Twitt
##  8 366987 10999872 2019-02-25 10:59:23 jokowi      Bers Twitt
##  9 366987 10999528 2019-02-25 08:42:54 jokowi      "Emp Twitt
## 10 366987 10999161 2019-02-25 06:16:53 jokowi      "Tib Twitt
## #  with 1,480 more rows, and 82 more variables: display_text_width <dbl>,
## #   reply_to_status_id <chr>, reply_to_user_id <chr>,
## #   reply_to_screen_name <chr>, is_quote <lgl>, is_retweet <lgl>,
## #   favorite_count <int>, retweet_count <int>, hashtags <list>,
## #   symbols <list>, urls_url <list>, urls_t.co <list>,
## #   urls_expanded_url <list>, media_url <list>, media_t.co <list>,
## #   media_expanded_url <list>, media_type <list>, ext_media_url <list>,
## #   ext_media_t.co <list>, ext_media_expanded_url <list>,
## #   ext_media_type <chr>, mentions_user_id <list>,
…
Timeline Prabowo Subianto

# lihat timeline jokowi dan ambil tweet sebanyak 10000
# atau sebanyak-banyaknya
timeline_prabowo <- get_timeline(user = "prabowo", n = 10000)

# lihat isi dari timeline_jokowi
timeline_prabowo

## # A tibble: 3,233 x 88
##    user_id status_id created_at          screen_name text  source
##    <chr>   <chr>     <dttm>              <chr>       <chr> <chr> 
##  1 405807 11005897 2019-02-27 02:53:31 prabowo     Bagi Twitt
##  2 405807 11005877 2019-02-27 02:45:32 prabowo     Agen Twitt
##  3 405807 11005858 2019-02-27 02:38:00 prabowo     @Tit Twitt
##  4 405807 11005852 2019-02-27 02:35:46 prabowo     @as_ Twitt
##  5 405807 11005839 2019-02-27 02:30:24 prabowo     "Iba Twitt
##  6 405807 11005818 2019-02-27 02:22:06 prabowo     Sela Twitt
##  7 405807 10956199 2019-02-13 09:45:21 prabowo     @zai Twitt
##  8 405807 10956191 2019-02-13 09:42:26 prabowo     @zai Twitt
##  9 405807 10956175 2019-02-13 09:35:49 prabowo     @Ram Twitt
## 10 405807 10956067 2019-02-13 08:53:08 prabowo     Hati Twitt
## #  with 3,223 more rows, and 82 more variables: display_text_width <dbl>,
## #   reply_to_status_id <chr>, reply_to_user_id <chr>,
## #   reply_to_screen_name <chr>, is_quote <lgl>, is_retweet <lgl>,
## #   favorite_count <int>, retweet_count <int>, hashtags <list>,
## #   symbols <list>, urls_url <list>, urls_t.co <list>,
## #   urls_expanded_url <list>, media_url <list>, media_t.co <list>,
## #   media_expanded_url <list>, media_type <list>, ext_media_url <list>,
## #   ext_media_t.co <list>, ext_media_expanded_url <list>,
## #   ext_media_type <chr>, mentions_user_id <list>,
…
