Text Mining and Wordcloud Using R
…
Untuk membuat wordcloud kita butuh frekuensi dari masing-masing huruf sehingga kita harus menggunakan fungsi count().

df %>% # Dari df 
  # Filter data berdasarkan SEGMEN "SEGMEN II", AKTOR "Jokowi", dengan TOPIK "Hukum dan HAM"
  filter(SEGMEN == "SEGMEN II", AKTOR == "Jokowi", TOPIK == "Hukum dan HAM") %>% 
  select(TEKS) %>% # Pilih variabel TEKS
  unnest_tokens(output = Tokenized, input = TEKS) %>%  # Tokenize TEKS dengan nama output Tokenized
  count(Tokenized,sort = T) # Hitung semua huruf dalam variabel Tokenized, lalu di-sort dari yang tertinggi

## # A tibble: 260 x 2
##    Tokenized     n
##    <chr>     <int>
##  1 yang         33
##  2 kita         26
##  3 ada          14
##  4 hukum        14
##  5 ini          14
##  6 itu          13
##  7 di           10
##  8 dan           9
##  9 adalah        8
## 10 dengan        8
## # ... with 250 more rows
…
df %>% # Dari df 
  # Filter data berdasarkan SEGMEN "SEGMEN II", AKTOR "Jokowi", dengan TOPIK "Hukum dan HAM"
  filter(SEGMEN == "SEGMEN II", AKTOR == "Jokowi", TOPIK == "Hukum dan HAM") %>% 
  select(TEKS) %>% # Pilih variabel TEKS
  unnest_tokens(output = Tokenized, input = TEKS) %>% # Tokenize TEKS dengan nama output Tokenized
  anti_join(y = stopword, by = c("Tokenized" = "stopword")) %>%  # Buang stopword
  count(Tokenized, sort = T) # Hitung frekuensi setiap huruf

## # A tibble: 152 x 2
##    Tokenized       n
##    <chr>       <int>
##  1 hukum          14
##  2 bukti           6
##  3 disabilitas     6
##  4 bangsa          5
##  5 prosedur        5
##  6 terbesar        5
##  7 aset            4
##  8 beda            4
##  9 contoh          4
## 10 fungsi          4
## # ... with 142 more rows
…
